Week2_STAT433
…
##  Attaching packages  tidyverse 1.3.0 

##  ggplot2 3.3.2      purrr   0.3.3
##  tibble  3.0.0      dplyr   0.8.5
##  tidyr   1.0.2      stringr 1.4.0
##  readr   1.3.1      forcats 0.5.0

##  Conflicts  tidyverse_conflicts() 
## x dplyr::filter() masks stats::filter()
## x dplyr::lag()    masks stats::lag()

flights

## # A tibble: 336,776 x 19
##     year month   day dep_time sched_dep_time dep_delay arr_time sched_arr_time
##    <int> <int> <int>    <int>          <int>     <dbl>    <int>          <int>
##  1  2013     1     1      517            515         2      830            819
##  2  2013     1     1      533            529         4      850            830
##  3  2013     1     1      542            540         2      923            850
##  4  2013     1     1      544            545        -1     1004           1022
##  5  2013     1     1      554            600        -6      812            837
##  6  2013     1     1      554            558        -4      740            728
##  7  2013     1     1      555            600        -5      913            854
##  8  2013     1     1      557            600        -3      709            723
##  9  2013     1     1      557            600        -3      838            846
## 10  2013     1     1      558            600        -2      753            745
## #  with 336,766 more rows, and 11 more variables: arr_delay <dbl>,
## #   carrier <chr>, flight <int>, tailnum <chr>, origin <chr>, dest <chr>,
## #   air_time <dbl>, distance <dbl>, hour <dbl>, minute <dbl>, time_hour <dttm>
…
Therefore the missing departure time & delays and arrival time & delays can suggest that the flight was cancelled altogether.

However there are more number of null values in arrival time compared to departure time which suggests that these flights were either diverted to another airport or cancelled due to some circumstances.

For the rows of data where the arrival delay is a null value but arrival time has a value present, it is most likely that the flights would have been diverted and it did not reach the original destination.

2) Currently dep_time and sched_dep_time are convenient to look at, but hard to compute with because theyre not really continuous numbers. Convert them to a more convenient representation of number of minutes since midnight.

flights <- mutate(flights,
       dep_time_mins=(flights$dep_time%/%100*60)+flights$dep_time%%100,
       arr_time_mins=(flights$arr_time%/%100*60)+flights$arr_time%%100)
flights

## # A tibble: 336,776 x 21
##     year month   day dep_time sched_dep_time dep_delay arr_time sched_arr_time
##    <int> <int> <int>    <int>          <int>     <dbl>    <int>          <int>
##  1  2013     1     1      517            515         2      830            819
##  2  2013     1     1      533            529         4      850            830
##  3  2013     1     1      542            540         2      923            850
##  4  2013     1     1      544            545        -1     1004           1022
##  5  2013     1     1      554            600        -6      812            837
##  6  2013     1     1      554            558        -4      740            728
##  7  2013     1     1      555            600        -5      913            854
##  8  2013     1     1      557            600        -3      709            723
##  9  2013     1     1      557            600        -3      838            846
## 10  2013     1     1      558            600        -2      753            745
## #  with 336,766 more rows, and 13 more variables: arr_delay <dbl>,
## #   carrier <chr>, flight <int>, tailnum <chr>, origin <chr>, dest <chr>,
## #   air_time <dbl>, distance <dbl>, hour <dbl>, minute <dbl>, time_hour <dttm>,
## #   dep_time_mins <dbl>, arr_time_mins <dbl>
3) Look at the number of cancelled flights per day. Is there a pattern? Is the proportion of cancelled flights related to the average delay? Use multiple dyplr operations, all on one line, concluding with ggplot(aes(x= ,y=)) + geom_point()

Comments

A flight is cancelled when there is no departure time or arrival time.

flights_freq <- flights %>% 
  mutate(cancelled = (is.na(flights$dep_delay)|is.na(flights$arr_delay))) %>% # considers for cases 1 and 2
  group_by(year, month,day) %>% 
  summarise(cancelled_num = sum(cancelled)) %>% # calculates the frequency cancelled flights per day
  ungroup()
flights_freq <- flights_freq %>% mutate(day_num=(1:nrow(flights_freq)))
flights_freq

## # A tibble: 365 x 5
##     year month   day cancelled_num day_num
##    <int> <int> <int>         <int>   <int>
##  1  2013     1     1            11       1
##  2  2013     1     2            15       2
##  3  2013     1     3            14       3
##  4  2013     1     4             7       4
##  5  2013     1     5             3       5
##  6  2013     1     6             3       6
##  7  2013     1     7             3       7
##  8  2013     1     8             7       8
##  9  2013     1     9             9       9
## 10  2013     1    10             3      10
## #  with 355 more rows
…
Comments

Interesting find: The spike in the number of the cancelled flights shows that something went down around 8th February 2013. After looking up I found that this was the time when the February 2013th North American blizzard hit the USA.

delay_freq <- flights %>% 
  mutate(cancelled=(is.na(flights$dep_delay)|is.na(flights$arr_delay))) %>%
  group_by(year,month,day) %>%
  summarise(cancelled_num = sum(cancelled), cancelled_mean=mean(cancelled), mean_dep_delay = mean(dep_delay,na.rm=TRUE),mean_arr_delay=mean(arr_delay,na.rm=TRUE)) %>%
  ungroup()

delay_freq

## # A tibble: 365 x 7
##     year month   day cancelled_num cancelled_mean mean_dep_delay mean_arr_delay
##    <int> <int> <int>         <int>          <dbl>          <dbl>          <dbl>
##  1  2013     1     1            11        0.0131           11.5          12.7  
##  2  2013     1     2            15        0.0159           13.9          12.7  
##  3  2013     1     3            14        0.0153           11.0           5.73 
##  4  2013     1     4             7        0.00765           8.95         -1.93 
##  5  2013     1     5             3        0.00417           5.73         -1.53 
##  6  2013     1     6             3        0.00361           7.15          4.24 
##  7  2013     1     7             3        0.00322           5.42         -4.95 
##  8  2013     1     8             7        0.00779           2.55         -3.23 
##  9  2013     1     9             9        0.00998           2.28         -0.264
## 10  2013     1    10             3        0.00322           2.84         -5.90 
## #  with 355 more rows
…
